{
  "type": "FeatureCollection",
  "features": [
    {
      "type": "Feature",
      "properties": {
        "name": "TARTUGA",
        "callsign": "9MZX7",
        "cn_iso2": "MY",
        "mmsi_number": 533110489,
        "imo_number": null,
        "type": "Sailing vessel",
        "type_class": "yacht",
        "type_code": "VLR",
        "vessel_id": 3360693,
        "marker-color": "#a7b4d6",
        "marker-symbol": "yacht",
        "position_course_over_ground": 182.5,
        "position_nav_status": "Not defined",
        "position_received": "2021-01-23T15:17:23Z",
        "position_speed": 0,
        "position_heading": null,
        "voyage_destination": null,
        "voyage_eta": null,
        "voyage_received": null
      },
      "geometry": {
        "type": "Point",
        "coordinates": [
          10.833932,
          35.780781
        ]
      }
    },
    {
      "type": "Feature",
      "properties": {
        "name": "MAROLA",
        "callsign": "FGG7934",
        "cn_iso2": "FR",
        "mmsi_number": 227050010,
        "imo_number": null,
        "type": "Sailing vessel",
        "type_class": "yacht",
        "type_code": "VLR",
        "vessel_id": 8081188,
        "marker-color": "#a7b4d6",
        "marker-symbol": "yacht",
        "position_course_over_ground": 0,
        "position_nav_status": "Not defined",
        "position_received": "2021-01-23T15:17:28Z",
        "position_speed": 0,
        "position_heading": null,
        "voyage_destination": null,
        "voyage_eta": "2021-11-30T00:00:00Z",
        "voyage_received": "2021-01-18T15:53:42Z"
      },
      "geometry": {
        "type": "Point",
        "coordinates": [
          10.833121,
          35.780571
        ]
      }
    }
  ]
}