{
  "type": "Feature",
  "style": {
    "color": "grey",
    "fillColor": "#FFD1DF",
    "fillOpacity": 0.1,
    "weight": 0.4
  },
  "geometry": {
    "type": "GeometryCollection",
    "geometries": [
      {
        "type": "Point",
        "coordinates": [
          15.216667,
          44.116667
        ]
      },
      {
        "type": "MultiPolygon",
        "coordinates": [
          [
            [
              [
                13.2,
                45.45
              ],
              [
                13.0,
                45.15
              ],
              [
                13.216667,
                44.533333
              ],
              [
                14.5,
                43.483333
              ],
              [
                15.266667,
                42.916667
              ],
              [
                16.016667,
                42.516667
              ],
              [
                16.55,
                42.25
              ],
              [
                18.0,
                41.566667
              ],
              [
                18.15,
                41.5
              ],
              [
                13.2,
                45.45
              ]
            ]
          ]
        ]
      }
    ]
  },
  "properties": {
    "country": "Croatia",
    "url": "https://gisis.imo.org/Public/COMSAR/RCC.aspx?CID=HRV&Action=View&ID=85",
    "kind": "Maritime Rescue Sub-Centre (MRSC)",
    "name": "Zadar",
    "mmsi": "002387010",
    "callSign": null,
    "VHF_voiceCallSign": "002387020",
    "LRIT_ID": "2833",
    "telephone": [
      "+3851195",
      "+38551312301"
    ],
    "fax": [
      "+38551312254"
    ],
    "email": [
      "mrcc@pomorstvo.hr"
    ],
    "telex": null,
    "otherLandlineCommunication": "Inmarsat-C\t423816510",
    "associatedCRS": "Split Radio VHF DSC 002380100 \u2013 NAVTEX",
    "associatedLES": "Nearest Inmarsat-LES \u2013 FUCINO",
    "associatedCOSPAS_SARSAT": "ITMCC Bari - Italy",
    "associatedARCC": "Split Radio VHF DSC 002380100 \u2013 NAVTEX",
    "telemedicalAdvice": "Split Radio VHF DSC 002380100 \u2013 NAVTEX",
    "facilitiesAvailable": "Split Radio VHF DSC 002380100 \u2013 NAVTEX",
    "remarks": null,
    "additionalInformation": null,
    "areaLimitsPlaintext": [
      [
        "45\u00b027'00.00\"N",
        "013\u00b012'00.00\"E"
      ],
      [
        "45\u00b009'00.00\"N",
        "013\u00b000'00.00\"E"
      ],
      [
        "44\u00b032'00.00\"N",
        "013\u00b013'00.00\"E"
      ],
      [
        "43\u00b029'00.00\"N",
        "014\u00b030'00.00\"E"
      ],
      [
        "42\u00b055'00.00\"N",
        "015\u00b016'00.00\"E"
      ],
      [
        "42\u00b031'00.00\"N",
        "016\u00b001'00.00\"E"
      ],
      [
        "42\u00b015'00.00\"N",
        "016\u00b033'00.00\"E"
      ],
      [
        "41\u00b034'00.00\"N",
        "018\u00b000'00.00\"E"
      ],
      [
        "41\u00b030'00.00\"N",
        "018\u00b009'00.00\"E"
      ]
    ],
    "gmlFilename": null,
    "updated": "2018-10-14 00:00:00",
    "fetched": "2024-06-23 15:04:14+00:00"
  }
}