{
  "type": "Feature",
  "style": {
    "color": "grey",
    "fillColor": "#3a86ff",
    "fillOpacity": 0.1,
    "weight": 0.4
  },
  "geometry": {
    "type": "Point",
    "coordinates": [
      33.816667,
      31.066667
    ]
  },
  "properties": {
    "country": "Egypt",
    "url": "https://gisis.imo.org/Public/COMSAR/RCC.aspx?CID=EGY&Action=View&ID=1693",
    "kind": "Joint Rescue Sub-Centre (JRSC)",
    "name": "El Arish",
    "mmsi": null,
    "callSign": null,
    "VHF_voiceCallSign": null,
    "LRIT_ID": "2315",
    "telephone": [
      "+20683323041"
    ],
    "fax": [
      "+20683323041"
    ],
    "email": null,
    "telex": null,
    "otherLandlineCommunication": null,
    "associatedCRS": "CRS Port Said",
    "associatedLES": null,
    "associatedCOSPAS_SARSAT": null,
    "associatedARCC": "CRS Port Said",
    "telemedicalAdvice": "CRS Port Said",
    "facilitiesAvailable": "CRS Port Said",
    "remarks": "CRS Port SaidTel.: +20663220625 / +20663220626Fax: +20663325705 / +20663325706Telex: +9163165 / +9163166",
    "additionalInformation": null,
    "areaLimitsPlaintext": null,
    "gmlFilename": null,
    "updated": "2023-01-18 00:00:00",
    "fetched": "2024-06-23 14:56:44+00:00"
  }
}