{
  "type": "Feature",
  "style": {
    "color": "grey",
    "fillColor": "#c1121f",
    "fillOpacity": 0.1,
    "weight": 0.4
  },
  "geometry": {
    "type": "Point",
    "coordinates": [
      8.733333,
      41.916667
    ]
  },
  "properties": {
    "country": "France",
    "url": "https://gisis.imo.org/Public/COMSAR/RCC.aspx?CID=FRA&Action=View&ID=107",
    "kind": "Maritime Rescue Sub-Centre (MRSC)",
    "name": "AJACCIO",
    "mmsi": "002275410",
    "callSign": null,
    "VHF_voiceCallSign": "CROSS MED or MRSC Ajaccio",
    "LRIT_ID": "2859",
    "telephone": [
      "+33495201363"
    ],
    "fax": [
      "+33495225191"
    ],
    "email": [
      "ajaccio@mrscfr.eu"
    ],
    "telex": "460187",
    "otherLandlineCommunication": "Watch on VHF channels:  16 - 70 (DSC)Mail address:Sous CROSSBan AsprettoBP 40420184 Ajaccio CedexFrance",
    "associatedCRS": null,
    "associatedLES": "AUSSAGUEL",
    "associatedCOSPAS_SARSAT": "FMCC TOULOUSE",
    "associatedARCC": null,
    "telemedicalAdvice": null,
    "facilitiesAvailable": null,
    "remarks": "1 MRSC Ajaccio is open on a non-permanent basis for coordinating SAR operations in the vicinity of Corsica on behalf of MRCC La Garde, without being allowed a fixed Search and Rescue Subregion.  When MRSC Ajaccio is closed, its VHF stations and phone/fax lines are operated by MRCC La Garde.2 In doubt on area where you are, be advised that the MRCC Gris-Nez is considered as a French SAR single point of contact.",
    "additionalInformation": null,
    "areaLimitsPlaintext": null,
    "gmlFilename": null,
    "updated": "2021-09-21 00:00:00",
    "fetched": "2024-06-23 14:55:18+00:00"
  }
}