{
  "type": "Feature",
  "style": {
    "color": "grey",
    "fillColor": "#AEF6BA",
    "fillOpacity": 0.2,
    "weight": 0.4
  },
  "geometry": {
    "type": "GeometryCollection",
    "geometries": [
      {
        "type": "Point",
        "coordinates": [
          13.35,
          38.116667
        ]
      },
      {
        "type": "MultiPolygon",
        "coordinates": [
          [
            [
              [
                14.18,
                38.02
              ],
              [
                14.1,
                38.1833
              ],
              [
                14.1,
                39.2
              ],
              [
                11.65,
                39.85
              ],
              [
                10.35,
                38.0
              ],
              [
                11.5,
                37.5
              ],
              [
                11.5,
                36.5
              ],
              [
                12.2333,
                35.25
              ],
              [
                12.6667,
                35.25
              ],
              [
                14.1333,
                36.5
              ],
              [
                14.1333,
                36.6667
              ],
              [
                14.3383,
                37.0033
              ],
              [
                14.18,
                38.02
              ]
            ]
          ]
        ]
      }
    ]
  },
  "properties": {
    "country": "Italy",
    "url": "https://gisis.imo.org/Public/COMSAR/RCC.aspx?CID=ITA&Action=View&ID=134",
    "kind": "Maritime Rescue Sub-Centre (MRSC)",
    "name": "Palermo",
    "mmsi": "002470022",
    "callSign": "ICI 12",
    "VHF_voiceCallSign": "ICI 12",
    "LRIT_ID": "2391",
    "telephone": [
      "+39091331538",
      "+390916043110",
      "+390916043165",
      "+390916043188",
      "+390916043111",
      "+39091331538"
    ],
    "fax": [
      "+39091325519",
      "+39091327213"
    ],
    "email": [
      "so.cppalermo@mit.gov.it"
    ],
    "telex": null,
    "otherLandlineCommunication": "Fax: +39 091 325519 (RX), +39 091 327213 (TX)",
    "associatedCRS": "Palermo Radio",
    "associatedLES": "Fucino",
    "associatedCOSPAS_SARSAT": "MRCC Rome",
    "associatedARCC": "Palermo Radio",
    "telemedicalAdvice": "Palermo Radio",
    "facilitiesAvailable": "Palermo Radio",
    "remarks": null,
    "additionalInformation": null,
    "areaLimitsPlaintext": null,
    "gmlFilename": "ITA-RCCAreas-134.gml",
    "updated": "2024-03-15 00:00:00",
    "fetched": "2024-06-23 15:06:11+00:00"
  }
}