{
  "type": "Feature",
  "style": {
    "color": "grey",
    "fillColor": "#AEF6BA",
    "fillOpacity": 0.2,
    "weight": 0.4
  },
  "geometry": {
    "type": "GeometryCollection",
    "geometries": [
      {
        "type": "Point",
        "coordinates": [
          13.766667,
          45.65
        ]
      },
      {
        "type": "MultiPolygon",
        "coordinates": [
          [
            [
              [
                13.1,
                45.6433
              ],
              [
                13.2117,
                45.455
              ],
              [
                13.2117,
                45.4533
              ],
              [
                13.3133,
                45.545
              ],
              [
                13.63,
                45.63
              ],
              [
                13.7133,
                45.5983
              ],
              [
                13.7233,
                45.595
              ],
              [
                13.1,
                45.6433
              ]
            ]
          ]
        ]
      }
    ]
  },
  "properties": {
    "country": "Italy",
    "url": "https://gisis.imo.org/Public/COMSAR/RCC.aspx?CID=ITA&Action=View&ID=132",
    "kind": "Maritime Rescue Sub-Centre (MRSC)",
    "name": "Trieste",
    "mmsi": "002470020",
    "callSign": "ICI 10",
    "VHF_voiceCallSign": "ICI 10",
    "LRIT_ID": "2389",
    "telephone": [
      "+39040676611",
      "+39040676616",
      "+39040676677"
    ],
    "fax": [
      "+39040676665"
    ],
    "email": [
      "so.cptrieste@mit.gov.it"
    ],
    "telex": null,
    "otherLandlineCommunication": null,
    "associatedCRS": "Trieste Radio",
    "associatedLES": "Fucino",
    "associatedCOSPAS_SARSAT": "MRCC Rome",
    "associatedARCC": "Trieste Radio",
    "telemedicalAdvice": "Trieste Radio",
    "facilitiesAvailable": "Trieste Radio",
    "remarks": null,
    "additionalInformation": null,
    "areaLimitsPlaintext": null,
    "gmlFilename": "ITA-RCCAreas-132.gml",
    "updated": "2024-03-15 00:00:00",
    "fetched": "2024-06-23 15:06:00+00:00"
  }
}