{
  "type": "Feature",
  "style": {
    "color": "grey",
    "fillColor": "#AEF6BA",
    "fillOpacity": 0.2,
    "weight": 0.4
  },
  "geometry": {
    "type": "GeometryCollection",
    "geometries": [
      {
        "type": "Point",
        "coordinates": [
          11.783333,
          42.083333
        ]
      },
      {
        "type": "MultiPolygon",
        "coordinates": [
          [
            [
              [
                11.4483,
                42.3783
              ],
              [
                10.5,
                41.8333
              ],
              [
                11.65,
                39.85
              ],
              [
                13.5333,
                40.55
              ],
              [
                13.7617,
                41.2233
              ],
              [
                11.4483,
                42.3783
              ]
            ]
          ]
        ]
      }
    ]
  },
  "properties": {
    "country": "Italy",
    "url": "https://gisis.imo.org/Public/COMSAR/RCC.aspx?CID=ITA&Action=View&ID=125",
    "kind": "Maritime Rescue Sub-Centre (MRSC)",
    "name": "Civitavecchia",
    "mmsi": "002470024",
    "callSign": "ICI 03",
    "VHF_voiceCallSign": "ICI 03",
    "LRIT_ID": "2382",
    "telephone": [
      "+3907661943419",
      "+3907661943420",
      "+3907661943461",
      "+390766194301"
    ],
    "fax": [
      "+390766679642"
    ],
    "email": [
      "so.cpcivitavecchia@mit.gov.it"
    ],
    "telex": null,
    "otherLandlineCommunication": null,
    "associatedCRS": "Rome Radio",
    "associatedLES": "Fucino",
    "associatedCOSPAS_SARSAT": "MRCC Roma",
    "associatedARCC": "Rome Radio",
    "telemedicalAdvice": "Rome Radio",
    "facilitiesAvailable": "Rome Radio",
    "remarks": "\u201c3\u00b0 MRSC Rome\u201d has been renamed \u201c3\u00b0 MRSC Civitavecchia\u201d.",
    "additionalInformation": null,
    "areaLimitsPlaintext": null,
    "gmlFilename": "ITA-RCCAreas-125.gml",
    "updated": "2024-03-15 00:00:00",
    "fetched": "2024-06-23 15:05:23+00:00"
  }
}