{
  "type": "Feature",
  "style": {
    "color": "grey",
    "fillColor": "#AEF6BA",
    "fillOpacity": 0.2,
    "weight": 0.4
  },
  "geometry": {
    "type": "GeometryCollection",
    "geometries": [
      {
        "type": "Point",
        "coordinates": [
          14.25,
          40.833333
        ]
      },
      {
        "type": "MultiPolygon",
        "coordinates": [
          [
            [
              [
                13.7617,
                41.2233
              ],
              [
                13.5333,
                40.55
              ],
              [
                11.65,
                39.85
              ],
              [
                14.1,
                39.2
              ],
              [
                14.8167,
                39.0167
              ],
              [
                15.5,
                39.8333
              ],
              [
                15.6433,
                40.0433
              ],
              [
                13.7617,
                41.2233
              ]
            ]
          ]
        ]
      }
    ]
  },
  "properties": {
    "country": "Italy",
    "url": "https://gisis.imo.org/Public/COMSAR/RCC.aspx?CID=ITA&Action=View&ID=126",
    "kind": "Maritime Rescue Sub-Centre (MRSC)",
    "name": "Napoli",
    "mmsi": "002470014",
    "callSign": "ICI 04",
    "VHF_voiceCallSign": "ICI 04",
    "LRIT_ID": "2383",
    "telephone": [
      "+390812445308",
      "+390812445431",
      "+390812445432",
      "+390812445433",
      "+390812445434",
      "+390815536017"
    ],
    "fax": [
      "+390812445347",
      "+390812445435"
    ],
    "email": [
      "so.cpnapoli@mit.gov.it"
    ],
    "telex": null,
    "otherLandlineCommunication": null,
    "associatedCRS": "Napoli Radio",
    "associatedLES": "Fucino",
    "associatedCOSPAS_SARSAT": "MRCC Rome",
    "associatedARCC": "Napoli Radio",
    "telemedicalAdvice": "Napoli Radio",
    "facilitiesAvailable": "Napoli Radio",
    "remarks": null,
    "additionalInformation": null,
    "areaLimitsPlaintext": null,
    "gmlFilename": "ITA-RCCAreas-126.gml",
    "updated": "2019-10-03 00:00:00",
    "fetched": "2024-06-23 15:05:29+00:00"
  }
}