{
  "type": "Feature",
  "style": {
    "color": "grey",
    "fillColor": "#AEF6BA",
    "fillOpacity": 0.2,
    "weight": 0.4
  },
  "geometry": {
    "type": "GeometryCollection",
    "geometries": [
      {
        "type": "Point",
        "coordinates": [
          12.2,
          44.416667
        ]
      },
      {
        "type": "MultiPolygon",
        "coordinates": [
          [
            [
              [
                12.7517,
                43.9683
              ],
              [
                12.8333,
                44.1167
              ],
              [
                13.4683,
                44.3017
              ],
              [
                13.2317,
                44.5333
              ],
              [
                13.135,
                44.7517
              ],
              [
                12.6667,
                44.7
              ],
              [
                12.4,
                44.7933
              ],
              [
                12.7517,
                43.9683
              ]
            ]
          ]
        ]
      }
    ]
  },
  "properties": {
    "country": "Italy",
    "url": "https://gisis.imo.org/Public/COMSAR/RCC.aspx?CID=ITA&Action=View&ID=130",
    "kind": "Maritime Rescue Sub-Centre (MRSC)",
    "name": "Ravenna",
    "mmsi": "002470018",
    "callSign": "ICI 08",
    "VHF_voiceCallSign": "ICI 08",
    "LRIT_ID": "2387",
    "telephone": [
      "+390544443013",
      "+390544443011"
    ],
    "fax": [
      "+390544447498"
    ],
    "email": [
      "so.cpravenna@mit.gov.it"
    ],
    "telex": null,
    "otherLandlineCommunication": null,
    "associatedCRS": "Ravenna Radio",
    "associatedLES": "Fucino",
    "associatedCOSPAS_SARSAT": "MRCC Rome",
    "associatedARCC": "Ravenna Radio",
    "telemedicalAdvice": "Ravenna Radio",
    "facilitiesAvailable": "Ravenna Radio",
    "remarks": null,
    "additionalInformation": null,
    "areaLimitsPlaintext": null,
    "gmlFilename": "ITA-RCCAreas-130.gml",
    "updated": "2024-03-15 00:00:00",
    "fetched": "2024-06-23 15:05:50+00:00"
  }
}