{
  "type": "FeatureCollection",
  "style": {
    "color": "#000",
    "weight": 0.5,
    "opacity": 0.7
  },
  "name": "ne_10m_graticules_10_cr",
  "crs": {
    "type": "name",
    "properties": { "name": "urn:ogc:def:crs:OGC:1.3:CRS84" }
  },
  "features": [
    {
      "type": "Feature",
      "properties": {
        "Type": "Graticules",
        "Name": "40 N",
        "Source": "naturalearthdata.com"
      },
      "geometry": {
        "type": "LineString",
        "coordinates": [
          [37.301153, 39.998747],
          [36.999943, 39.998747],
          [36.499922, 39.998747],
          [35.999901, 39.998747],
          [35.49988, 39.998747],
          [34.999859, 39.998747],
          [34.499838, 39.998747],
          [33.99992, 39.998747],
          [33.499899, 39.998747],
          [32.999878, 39.998747],
          [32.499856, 39.998747],
          [31.999939, 39.998747],
          [31.499917, 39.998747],
          [30.999896, 39.998747],
          [30.499875, 39.998747],
          [29.999957, 39.998747],
          [29.998045, 39.998747],
          [29.499936, 39.998747],
          [28.999915, 39.998747],
          [28.499894, 39.998747],
          [27.999873, 39.998747],
          [27.499852, 39.998747],
          [26.999934, 39.998747],
          [26.499913, 39.998747],
          [25.999891, 39.998747],
          [25.49987, 39.998747],
          [24.999952, 39.998747],
          [24.499931, 39.998747],
          [23.99991, 39.998747],
          [23.499889, 39.998747],
          [22.999868, 39.998747],
          [22.499847, 39.998747],
          [21.999929, 39.998747],
          [21.499908, 39.998747],
          [20.999887, 39.998747],
          [20.499865, 39.998747],
          [19.999948, 39.998747],
          [19.998139, 39.998747],
          [19.499926, 39.998747],
          [18.999905, 39.998747],
          [18.499884, 39.998747],
          [17.999863, 39.998747],
          [17.499842, 39.998747],
          [16.999924, 39.998747],
          [16.499903, 39.998747],
          [15.999882, 39.998747],
          [15.49986, 39.998747],
          [14.999943, 39.998747],
          [14.499922, 39.998747],
          [13.9999, 39.998747],
          [13.499879, 39.998747],
          [12.999858, 39.998747],
          [12.49994, 39.998747],
          [11.999919, 39.998747],
          [11.499898, 39.998747],
          [10.999877, 39.998747],
          [10.499856, 39.998747],
          [9.999938, 39.998747],
          [9.998232, 39.998747],
          [9.499917, 39.998747],
          [8.999895, 39.998747],
          [8.499874, 39.998747],
          [7.999956, 39.998747],
          [7.499935, 39.998747],
          [6.999914, 39.998747],
          [6.499893, 39.998747],
          [5.999872, 39.998747],
          [5.499851, 39.998747],
          [4.999933, 39.998747],
          [4.499912, 39.998747],
          [3.999891, 39.998747],
          [3.499869, 39.998747],
          [2.999952, 39.998747],
          [2.49993, 39.998747],
          [1.999909, 39.998747],
          [1.499888, 39.998747],
          [0.999867, 39.998747],
          [0.499846, 39.998747],
          [-0.000072, 39.998747],
          [-0.001674, 39.998747],
          [-0.49999, 39.998747],
          [-1.000011, 39.998747],
          [-1.500032, 39.998747],
          [-2.000053, 39.998747],
          [-2.499971, 39.998747],
          [-2.999992, 39.998747],
          [-3.500013, 39.998747],
          [-4.000035, 39.998747],
          [-4.500056, 39.998747],
          [-5.000077, 39.998747],
          [-5.499995, 39.998747],
          [-6.000016, 39.998747],
          [-6.500037, 39.998747],
          [-7.000006, 39.998747],
          [-7.499976, 39.998747],
          [-7.999997, 39.998747],
          [-8.500018, 39.998747],
          [-9.000014, 39.998747],
          [-9.500009, 39.998747],
          [-10.00003, 39.998747],
          [-10.00158, 39.998747],
          [-10.500051, 39.998747],
          [-10.717332, 39.998747]
        ]
      }
    },
    {
      "type": "Feature",
      "properties": {
        "Type": "Graticules",
        "Name": "30 N",
        "Source": "naturalearthdata.com"
      },
      "geometry": {
        "type": "LineString",
        "coordinates": [
          [37.373268, 29.998893],
          [36.999943, 29.998893],
          [36.499922, 29.998893],
          [35.999901, 29.998893],
          [35.49988, 29.998893],
          [34.999859, 29.998893],
          [34.499838, 29.998893],
          [33.99992, 29.998893],
          [33.499899, 29.998893],
          [32.999878, 29.998893],
          [32.499856, 29.998893],
          [31.999939, 29.998893],
          [31.499917, 29.998893],
          [30.999896, 29.998893],
          [30.499875, 29.998893],
          [29.999957, 29.998893],
          [29.998045, 29.998893],
          [29.499936, 29.998893],
          [28.999915, 29.998893],
          [28.499894, 29.998893],
          [27.999873, 29.998893],
          [27.499852, 29.998893],
          [26.999934, 29.998893],
          [26.499913, 29.998893],
          [25.999891, 29.998893],
          [25.49987, 29.998893],
          [24.999952, 29.998893],
          [24.499931, 29.998893],
          [23.99991, 29.998893],
          [23.499889, 29.998893],
          [22.999868, 29.998893],
          [22.499847, 29.998893],
          [21.999929, 29.998893],
          [21.499908, 29.998893],
          [20.999887, 29.998893],
          [20.499865, 29.998893],
          [19.999948, 29.998893],
          [19.998139, 29.998893],
          [19.499926, 29.998893],
          [18.999905, 29.998893],
          [18.499884, 29.998893],
          [17.999863, 29.998893],
          [17.499842, 29.998893],
          [16.999924, 29.998893],
          [16.499903, 29.998893],
          [15.999882, 29.998893],
          [15.49986, 29.998893],
          [14.999943, 29.998893],
          [14.499922, 29.998893],
          [13.9999, 29.998893],
          [13.499879, 29.998893],
          [12.999858, 29.998893],
          [12.49994, 29.998893],
          [11.999919, 29.998893],
          [11.499898, 29.998893],
          [10.999877, 29.998893],
          [10.499856, 29.998893],
          [9.999938, 29.998893],
          [9.998232, 29.998893],
          [9.499917, 29.998893],
          [8.999895, 29.998893],
          [8.499874, 29.998893],
          [7.999956, 29.998893],
          [7.499935, 29.998893],
          [6.999914, 29.998893],
          [6.499893, 29.998893],
          [5.999872, 29.998893],
          [5.499851, 29.998893],
          [4.999933, 29.998893],
          [4.499912, 29.998893],
          [3.999891, 29.998893],
          [3.499869, 29.998893],
          [2.999952, 29.998893],
          [2.49993, 29.998893],
          [1.999909, 29.998893],
          [1.499888, 29.998893],
          [0.999867, 29.998893],
          [0.499846, 29.998893],
          [-0.000072, 29.998893],
          [-0.001674, 29.998893],
          [-0.500093, 29.998893],
          [-1.000011, 29.998893],
          [-1.500032, 29.998893],
          [-2.000053, 29.998893],
          [-2.499971, 29.998893],
          [-2.999992, 29.998893],
          [-3.500013, 29.998893],
          [-4.000035, 29.998893],
          [-4.500056, 29.998893],
          [-5.000077, 29.998893],
          [-5.499995, 29.998893],
          [-6.000016, 29.998893],
          [-6.500037, 29.998893],
          [-7.000006, 29.998893],
          [-7.499976, 29.998893],
          [-7.999997, 29.998893],
          [-8.500018, 29.998893],
          [-9.000014, 29.998893],
          [-9.500009, 29.998893],
          [-10.00003, 29.998893],
          [-10.00158, 29.998893],
          [-10.500051, 29.998893],
          [-10.693119, 29.998893]
        ]
      }
    },
    {
      "type": "Feature",
      "properties": {
        "Type": "Graticules",
        "Name": "20 N",
        "Source": "naturalearthdata.com"
      },
      "geometry": {
        "type": "LineString",
        "coordinates": [
          [37.445382, 19.99909],
          [36.999943, 19.99909],
          [36.500026, 19.99909],
          [36.000005, 19.99909],
          [35.499983, 19.99909],
          [34.999962, 19.99909],
          [34.499941, 19.99909],
          [33.99992, 19.99909],
          [33.500002, 19.99909],
          [32.999981, 19.99909],
          [32.49996, 19.99909],
          [31.999939, 19.99909],
          [31.500021, 19.99909],
          [31.0, 19.99909],
          [30.499978, 19.99909],
          [29.999957, 19.99909],
          [29.998045, 19.99909],
          [29.50004, 19.99909],
          [29.000018, 19.99909],
          [28.499997, 19.99909],
          [27.999976, 19.99909],
          [27.499955, 19.99909],
          [26.999934, 19.99909],
          [26.500016, 19.99909],
          [25.999995, 19.99909],
          [25.499974, 19.99909],
          [24.999952, 19.99909],
          [24.500035, 19.99909],
          [24.000013, 19.99909],
          [23.499992, 19.99909],
          [22.999971, 19.99909],
          [22.49995, 19.99909],
          [21.999929, 19.99909],
          [21.500011, 19.99909],
          [20.99999, 19.99909],
          [20.499969, 19.99909],
          [19.999948, 19.99909],
          [19.998139, 19.99909],
          [19.50003, 19.99909],
          [19.000009, 19.99909],
          [18.499987, 19.99909],
          [17.999966, 19.99909],
          [17.499945, 19.99909],
          [16.999924, 19.99909],
          [16.500006, 19.99909],
          [15.999985, 19.99909],
          [15.499964, 19.99909],
          [14.999943, 19.99909],
          [14.500025, 19.99909],
          [14.000004, 19.99909],
          [13.499983, 19.99909],
          [12.999961, 19.99909],
          [12.49994, 19.99909],
          [12.000022, 19.99909],
          [11.500001, 19.99909],
          [10.99998, 19.99909],
          [10.499959, 19.99909],
          [9.999938, 19.99909],
          [9.998232, 19.99909],
          [9.50002, 19.99909],
          [8.999999, 19.99909],
          [8.499978, 19.99909],
          [7.999956, 19.99909],
          [7.500039, 19.99909],
          [7.000018, 19.99909],
          [6.499996, 19.99909],
          [5.999975, 19.99909],
          [5.499954, 19.99909],
          [4.999933, 19.99909],
          [4.500015, 19.99909],
          [3.999994, 19.99909],
          [3.499973, 19.99909],
          [2.999952, 19.99909],
          [2.500034, 19.99909],
          [2.000013, 19.99909],
          [1.499991, 19.99909],
          [0.99997, 19.99909],
          [0.499949, 19.99909],
          [-0.000072, 19.99909],
          [-0.001674, 19.99909],
          [-0.500093, 19.99909],
          [-0.999985, 19.99909],
          [-1.500006, 19.99909],
          [-2.000027, 19.99909],
          [-2.500023, 19.99909],
          [-2.999966, 19.99909],
          [-3.499988, 19.99909],
          [-4.000009, 19.99909],
          [-4.50003, 19.99909],
          [-5.000051, 19.99909],
          [-5.500021, 19.99909],
          [-6.000016, 19.99909],
          [-6.500037, 19.99909],
          [-7.000006, 19.99909],
          [-7.500002, 19.99909],
          [-7.999997, 19.99909],
          [-8.500018, 19.99909],
          [-9.000014, 19.99909],
          [-9.500009, 19.99909],
          [-10.00003, 19.99909],
          [-10.00158, 19.99909],
          [-10.500051, 19.99909],
          [-10.668906, 19.99909]
        ]
      }
    },
    {
      "type": "Feature",
      "properties": {
        "Type": "Graticules",
        "Name": "30 E",
        "Source": "naturalearthdata.com"
      },
      "geometry": {
        "type": "LineString",
        "coordinates": [
          [29.998045, 18.965386],
          [29.998045, 19.000029],
          [29.998045, 19.500025],
          [29.998045, 19.99909],
          [29.998045, 20.00002],
          [29.998045, 20.500015],
          [29.998045, 21.00001],
          [29.998045, 21.500006],
          [29.998045, 22.000001],
          [29.998045, 22.500022],
          [29.998045, 23.000018],
          [29.998045, 23.500013],
          [29.998045, 24.000008],
          [29.998045, 24.500004],
          [29.998045, 25.000025],
          [29.998045, 25.50002],
          [29.998045, 26.000015],
          [29.998045, 26.500011],
          [29.998045, 27.000006],
          [29.998045, 27.500027],
          [29.998045, 28.000022],
          [29.998045, 28.500018],
          [29.998045, 29.000013],
          [29.998045, 29.500008],
          [29.998045, 29.998893],
          [29.998045, 30.00003],
          [29.998045, 30.500025],
          [29.998045, 31.00002],
          [29.998045, 31.500016],
          [29.998045, 32.000011],
          [29.998045, 32.500006],
          [29.998045, 33.000002],
          [29.998045, 33.500023],
          [29.998045, 34.000018],
          [29.998045, 34.500013],
          [29.998045, 35.000009],
          [29.998045, 35.500004],
          [29.998045, 36.000025],
          [29.998045, 36.50002],
          [29.998045, 37.000016],
          [29.998045, 37.500011],
          [29.998045, 38.000006],
          [29.998045, 38.500028],
          [29.998045, 39.000023],
          [29.998045, 39.500018],
          [29.998045, 39.998747],
          [29.998045, 40.000014],
          [29.998045, 40.500009],
          [29.998045, 41.00003],
          [29.998045, 41.500025],
          [29.998045, 42.000021],
          [29.998045, 42.500016],
          [29.998045, 43.000011],
          [29.998045, 43.500007],
          [29.998045, 44.000002],
          [29.998045, 44.500023],
          [29.998045, 45.000018],
          [29.998045, 45.500014],
          [29.998045, 45.999983],
          [29.998045, 46.500004],
          [29.998045, 47.000026],
          [29.998045, 47.500021],
          [29.998045, 48.000016],
          [29.998045, 48.500012],
          [29.998045, 49.000007],
          [29.998045, 49.079279]
        ]
      }
    },
    {
      "type": "Feature",
      "properties": {
        "Type": "Graticules",
        "Name": "20 E",
        "Source": "naturalearthdata.com"
      },
      "geometry": {
        "type": "LineString",
        "coordinates": [
          [19.998139, 18.995506],
          [19.998139, 19.000029],
          [19.998139, 19.500025],
          [19.998139, 19.99909],
          [19.998139, 20.00002],
          [19.998139, 20.500015],
          [19.998139, 21.00001],
          [19.998139, 21.500006],
          [19.998139, 22.000001],
          [19.998139, 22.500022],
          [19.998139, 23.000018],
          [19.998139, 23.500013],
          [19.998139, 24.000008],
          [19.998139, 24.500004],
          [19.998139, 25.000025],
          [19.998139, 25.50002],
          [19.998139, 26.000015],
          [19.998139, 26.500011],
          [19.998139, 27.000006],
          [19.998139, 27.500027],
          [19.998139, 28.000022],
          [19.998139, 28.500018],
          [19.998139, 29.000013],
          [19.998139, 29.500008],
          [19.998139, 29.998893],
          [19.998139, 30.00003],
          [19.998139, 30.500025],
          [19.998139, 31.00002],
          [19.998139, 31.500016],
          [19.998139, 32.000011],
          [19.998139, 32.500006],
          [19.998139, 33.000002],
          [19.998139, 33.500023],
          [19.998139, 34.000018],
          [19.998139, 34.500013],
          [19.998139, 35.000009],
          [19.998139, 35.500004],
          [19.998139, 36.000025],
          [19.998139, 36.50002],
          [19.998139, 37.000016],
          [19.998139, 37.500011],
          [19.998139, 38.000006],
          [19.998139, 38.500028],
          [19.998139, 39.000023],
          [19.998139, 39.500018],
          [19.998139, 39.998747],
          [19.998139, 40.000014],
          [19.998139, 40.500009],
          [19.998139, 41.00003],
          [19.998139, 41.500025],
          [19.998139, 42.000021],
          [19.998139, 42.500016],
          [19.998139, 43.000011],
          [19.998139, 43.500007],
          [19.998139, 44.000002],
          [19.998139, 44.500023],
          [19.998139, 45.000018],
          [19.998139, 45.500014],
          [19.998139, 45.999983],
          [19.998139, 46.500004],
          [19.998139, 47.000026],
          [19.998139, 47.500021],
          [19.998139, 48.000016],
          [19.998139, 48.500012],
          [19.998139, 49.000007],
          [19.998139, 49.064174]
        ]
      }
    },
    {
      "type": "Feature",
      "properties": {
        "Type": "Graticules",
        "Name": "10 E",
        "Source": "naturalearthdata.com"
      },
      "geometry": {
        "type": "LineString",
        "coordinates": [
          [9.998232, 19.025626],
          [9.998232, 19.500025],
          [9.998232, 19.99909],
          [9.998232, 20.00002],
          [9.998232, 20.500015],
          [9.998232, 21.00001],
          [9.998232, 21.500006],
          [9.998232, 22.000001],
          [9.998232, 22.500022],
          [9.998232, 23.000018],
          [9.998232, 23.500013],
          [9.998232, 24.000008],
          [9.998232, 24.500004],
          [9.998232, 25.000025],
          [9.998232, 25.50002],
          [9.998232, 26.000015],
          [9.998232, 26.500011],
          [9.998232, 27.000006],
          [9.998232, 27.500027],
          [9.998232, 28.000022],
          [9.998232, 28.500018],
          [9.998232, 29.000013],
          [9.998232, 29.500008],
          [9.998232, 29.998893],
          [9.998232, 30.00003],
          [9.998232, 30.500025],
          [9.998232, 31.00002],
          [9.998232, 31.500016],
          [9.998232, 32.000011],
          [9.998232, 32.500006],
          [9.998232, 33.000002],
          [9.998232, 33.500023],
          [9.998232, 34.000018],
          [9.998232, 34.500013],
          [9.998232, 35.000009],
          [9.998232, 35.500004],
          [9.998232, 36.000025],
          [9.998232, 36.50002],
          [9.998232, 37.000016],
          [9.998232, 37.500011],
          [9.998232, 38.000006],
          [9.998232, 38.500028],
          [9.998232, 39.000023],
          [9.998232, 39.500018],
          [9.998232, 39.998747],
          [9.998232, 40.000014],
          [9.998232, 40.500009],
          [9.998232, 41.00003],
          [9.998232, 41.500025],
          [9.998232, 42.000021],
          [9.998232, 42.500016],
          [9.998232, 43.000011],
          [9.998232, 43.500007],
          [9.998232, 44.000002],
          [9.998232, 44.500023],
          [9.998232, 45.000018],
          [9.998232, 45.500014],
          [9.998232, 45.999983],
          [9.998232, 46.500004],
          [9.998232, 47.000026],
          [9.998232, 47.500021],
          [9.998232, 48.000016],
          [9.998232, 48.500012],
          [9.998232, 49.000007],
          [9.998232, 49.049068]
        ]
      }
    },
    {
      "type": "Feature",
      "properties": {
        "Type": "Graticules",
        "Name": "0",
        "Source": "naturalearthdata.com"
      },
      "geometry": {
        "type": "LineString",
        "coordinates": [
          [-0.001674, 19.055747],
          [-0.001674, 19.500025],
          [-0.001674, 19.99909],
          [-0.001674, 20.00002],
          [-0.001674, 20.500015],
          [-0.001674, 21.00001],
          [-0.001674, 21.500006],
          [-0.001674, 22.000001],
          [-0.001674, 22.500022],
          [-0.001674, 23.000018],
          [-0.001674, 23.500013],
          [-0.001674, 24.000008],
          [-0.001674, 24.500004],
          [-0.001674, 25.000025],
          [-0.001674, 25.50002],
          [-0.001674, 26.000015],
          [-0.001674, 26.500011],
          [-0.001674, 27.000006],
          [-0.001674, 27.500027],
          [-0.001674, 28.000022],
          [-0.001674, 28.500018],
          [-0.001674, 29.000013],
          [-0.001674, 29.500008],
          [-0.001674, 29.998893],
          [-0.001674, 30.00003],
          [-0.001674, 30.500025],
          [-0.001674, 31.00002],
          [-0.001674, 31.500016],
          [-0.001674, 32.000011],
          [-0.001674, 32.500006],
          [-0.001674, 33.000002],
          [-0.001674, 33.500023],
          [-0.001674, 34.000018],
          [-0.001674, 34.500013],
          [-0.001674, 35.000009],
          [-0.001674, 35.500004],
          [-0.001674, 36.000025],
          [-0.001674, 36.50002],
          [-0.001674, 37.000016],
          [-0.001674, 37.500011],
          [-0.001674, 38.000006],
          [-0.001674, 38.500028],
          [-0.001674, 39.000023],
          [-0.001674, 39.500018],
          [-0.001674, 39.998747],
          [-0.001674, 40.000014],
          [-0.001674, 40.500009],
          [-0.001674, 41.00003],
          [-0.001674, 41.500025],
          [-0.001674, 42.000021],
          [-0.001674, 42.500016],
          [-0.001674, 43.000011],
          [-0.001674, 43.500007],
          [-0.001674, 44.000002],
          [-0.001674, 44.500023],
          [-0.001674, 45.000018],
          [-0.001674, 45.500014],
          [-0.001674, 45.999983],
          [-0.001674, 46.500004],
          [-0.001674, 47.000026],
          [-0.001674, 47.500021],
          [-0.001674, 48.000016],
          [-0.001674, 48.500012],
          [-0.001674, 49.000007],
          [-0.001674, 49.033962]
        ]
      }
    },
    {
      "type": "Feature",
      "properties": {
        "Type": "Graticules",
        "Name": "10 W",
        "Source": "naturalearthdata.com"
      },
      "geometry": {
        "type": "LineString",
        "coordinates": [
          [-10.00158, 19.085867],
          [-10.00158, 19.500025],
          [-10.00158, 19.99909],
          [-10.00158, 20.00002],
          [-10.00158, 20.500015],
          [-10.00158, 21.00001],
          [-10.00158, 21.500006],
          [-10.00158, 22.000001],
          [-10.00158, 22.500022],
          [-10.00158, 23.000018],
          [-10.00158, 23.500013],
          [-10.00158, 24.000008],
          [-10.00158, 24.500004],
          [-10.00158, 25.000025],
          [-10.00158, 25.50002],
          [-10.00158, 26.000015],
          [-10.00158, 26.500011],
          [-10.00158, 27.000006],
          [-10.00158, 27.500027],
          [-10.00158, 28.000022],
          [-10.00158, 28.500018],
          [-10.00158, 29.000013],
          [-10.00158, 29.500008],
          [-10.00158, 29.998893],
          [-10.00158, 30.00003],
          [-10.00158, 30.500025],
          [-10.00158, 31.00002],
          [-10.00158, 31.500016],
          [-10.00158, 32.000011],
          [-10.00158, 32.500006],
          [-10.00158, 33.000002],
          [-10.00158, 33.500023],
          [-10.00158, 34.000018],
          [-10.00158, 34.500013],
          [-10.00158, 35.000009],
          [-10.00158, 35.500004],
          [-10.00158, 36.000025],
          [-10.00158, 36.50002],
          [-10.00158, 37.000016],
          [-10.00158, 37.500011],
          [-10.00158, 38.000006],
          [-10.00158, 38.500028],
          [-10.00158, 39.000023],
          [-10.00158, 39.500018],
          [-10.00158, 39.998747],
          [-10.00158, 40.000014],
          [-10.00158, 40.500009],
          [-10.00158, 41.00003],
          [-10.00158, 41.500025],
          [-10.00158, 42.000021],
          [-10.00158, 42.500016],
          [-10.00158, 43.000011],
          [-10.00158, 43.500007],
          [-10.00158, 44.000002],
          [-10.00158, 44.500023],
          [-10.00158, 45.000018],
          [-10.00158, 45.500014],
          [-10.00158, 45.999983],
          [-10.00158, 46.500004],
          [-10.00158, 47.000026],
          [-10.00158, 47.500021],
          [-10.00158, 48.000016],
          [-10.00158, 48.500012],
          [-10.00158, 49.000007],
          [-10.00158, 49.018857]
        ]
      }
    }
  ]
}
