{
  "type": "Feature",
  "geometry": {
    "type": "Point",
    "coordinates": [
      -25.666667,
      37.733333
    ]
  },
  "properties": {
    "country": "Portugal",
    "url": "https://gisis.imo.org/Public/COMSAR/RCC.aspx?CID=PRT&Action=View&ID=201",
    "kind": "Maritime Rescue Co-ordination Centre (MRCC)",
    "name": "Delgada",
    "mmsi": "002040100",
    "callSign": null,
    "VHF_voiceCallSign": "MRCC Delgada",
    "LRIT_ID": "2532",
    "telephone": [
      "+351296281777",
      "+351917777453"
    ],
    "fax": [
      "+351211938518"
    ],
    "email": [
      "mrcc.delgada@marinha.pt",
      "mrcc.delgada@gmail.com"
    ],
    "telex": null,
    "otherLandlineCommunication": "Inmarsat C: 426300065 ISat: +870 776 600 145",
    "associatedCRS": null,
    "associatedLES": "Aussaguel",
    "associatedCOSPAS_SARSAT": "SPOC:  MRCC Lisboa",
    "associatedARCC": null,
    "telemedicalAdvice": null,
    "facilitiesAvailable": null,
    "remarks": null,
    "additionalInformation": null,
    "areaLimitsPlaintext": null,
    "gmlFilename": null,
    "updated": "2018-06-28 00:00:00",
    "fetched": "2024-06-23 15:08:14+00:00"
  }
}