{
  "type": "Feature",
  "style": {
    "color": "grey",
    "fillColor": "#00b4d8",
    "fillOpacity": 0.05,
    "weight": 0.4
  },
  "geometry": {
    "type": "Point",
    "coordinates": [
      -3.716667,
      40.4
    ]
  },
  "properties": {
    "country": "Spain",
    "url": "https://gisis.imo.org/Public/COMSAR/RCC.aspx?CID=ESP&Action=View&ID=216",
    "kind": "Maritime Rescue Co-ordination Centre (MRCC)",
    "name": "Madrid",
    "mmsi": "002241008",
    "callSign": "See remarks",
    "VHF_voiceCallSign": "See remarks",
    "LRIT_ID": "2700",
    "telephone": [
      "+34917559132",
      "+34917559133"
    ],
    "fax": [
      "+34915261440"
    ],
    "email": [
      "cncs@sasemar.es"
    ],
    "telex": null,
    "otherLandlineCommunication": "Calle Fruela, 3, 28011, MadridInmarsat C: ( AOR-E ) 422423124",
    "associatedCRS": "See Remarks",
    "associatedLES": null,
    "associatedCOSPAS_SARSAT": "SPMCC Maspalomas",
    "associatedARCC": "See Remarks",
    "telemedicalAdvice": "See Remarks",
    "facilitiesAvailable": "See Remarks",
    "remarks": "A network of Coast Radio stations, connected to all Spanish MRCCs, is responsible for maintaining a continuous listening watch on international distress frequencies.",
    "additionalInformation": null,
    "areaLimitsPlaintext": null,
    "gmlFilename": null,
    "updated": "2023-01-18 00:00:00",
    "fetched": "2024-06-23 14:57:52+00:00"
  }
}