{
  "type": "Feature",
  "style": {
    "color": "grey",
    "fillColor": "#ffb703",
    "fillOpacity": 0.05,
    "weight": 0.4
  },
  "geometry": {
    "type": "MultiPolygon",
    "coordinates": [
      [
        [
          [
            29.2605,
            36.2947
          ],
          [
            27.1666,
            34.0194
          ],
          [
            29.0536,
            33.6972
          ],
          [
            29.2153,
            33.7825
          ],
          [
            29.8244,
            33.8433
          ],
          [
            32.2714,
            33.6647
          ],
          [
            32.3311,
            34.5564
          ],
          [
            32.2114,
            34.6547
          ],
          [
            32.0061,
            35.1144
          ],
          [
            32.5573,
            36.101
          ],
          [
            29.2605,
            36.2947
          ]
        ]
      ]
    ]
  },
  "properties": {
    "country": "T\u00fcrkiye",
    "url": "https://gisis.imo.org/Public/COMSAR/RCC.aspx?CID=TUR&Action=View&ID=249",
    "kind": "Maritime Rescue Sub-Centre (MRSC)",
    "name": "Antalya (Turkish Coast Guard Antalya Group Command)",
    "mmsi": null,
    "callSign": "TBL-15",
    "VHF_voiceCallSign": "Turkish Coast Guard",
    "LRIT_ID": "2779",
    "telephone": [
      "+902422592406"
    ],
    "fax": [
      "+902422594707"
    ],
    "email": null,
    "telex": null,
    "otherLandlineCommunication": null,
    "associatedCRS": "See remarks",
    "associatedLES": null,
    "associatedCOSPAS_SARSAT": "TRMCC / ANKARA",
    "associatedARCC": "See remarks",
    "telemedicalAdvice": "See remarks",
    "facilitiesAvailable": "See remarks",
    "remarks": "TURK RADIO TAH / 002711000 A1: Ch 70 A2: 2187.5 kHz (DSC Capability) A3/A4: 4, 6, 8, 12, 16 MHz Tel: \t+90 212 598 95 20 Fax: \t+90 212 541 03 38 Telex:21190 ISTZ TR",
    "additionalInformation": null,
    "areaLimitsPlaintext": null,
    "gmlFilename": "TUR-RCCAreas-249.gml",
    "updated": "2020-11-05 00:00:00",
    "fetched": "2024-06-23 15:09:10+00:00"
  }
}